{
  "project_info": {
    "project_number": "242206621169",
    "firebase_url": "https://lifes-journal.firebaseio.com",
    "project_id": "lifes-journal",
    "storage_bucket": "lifes-journal.appspot.com"
  },
  "client": [
    {
      "client_info": {
        "mobilesdk_app_id": "1:242206621169:android:e05105121e1b0744",
        "android_client_info": {
          "package_name": "com.example.jsonken.lifesjournal"
        }
      },
      "oauth_client": [
        {
          "client_id": "242206621169-fosda429mt0a0tndvv0dh9no0tneao4e.apps.googleusercontent.com",
          "client_type": 3
        }
      ],
      "api_key": [
        {
          "current_key": "AIzaSyDO3sKtfkVX_eWOCzVGqpH9UTpmqwQla-M"
        }
      ],
      "services": {
        "analytics_service": {
          "status": 1
        },
        "appinvite_service": {
          "status": 1,
          "other_platform_oauth_client": []
        },
        "ads_service": {
          "status": 2
        }
      }
    }
  ],
  "configuration_version": "1"
}